A2_2014_I1297221
A2_2017_I1486671
A2_2017_I1498079
ALEPH_1991_I319520
ALEPH_1995_I382179
ALEPH_1995_I398426
ALEPH_1996_I398193
ALEPH_1996_I402895
ALEPH_1996_I415745
ALEPH_1996_I421984
ALEPH_1996_I428072
ALEPH_1997_I427131
ALEPH_1999_I507422
ALEPH_2000_I507531
ALEPH_2001_I555653
ALEPH_2001_I558327
ALEPH_2002_I569165
ALEPH_2003_I626022
ALEPH_2004_I636645
ALEPH_2014_I1267648
ALEPH_2016_I1492968
ALICE_2010_I852264
ALICE_2010_I852450
ALICE_2010_I860416
ALICE_2010_I880049
ALICE_2011_I881474
ALICE_2011_I885104
ALICE_2012_I1116147
ALICE_2012_I1126966
ALICE_2012_I1127497
ALICE_2012_I1181770
ALICE_2012_I930312
ALICE_2012_I944757
ALICE_2013_I1225979
ALICE_2014_I1243865
ALICE_2014_I1244523
ALICE_2014_I1300380
ALICE_2015_CENT_PBPB
ALICE_2015_CENT_PP
ALICE_2015_CENT_PPB
ALICE_2015_I1357424
ALICE_2016_I1394676
ALICE_2016_I1419244
ALICE_2016_I1471838
ALICE_2016_I1507090
ALICE_2016_I1507157
ALICE_2017_I1511870
ALICE_2017_I1512110
ALICE_2017_I1620477
ALICE_2017_I1645239
ALICE_2018_I1669819
ALICE_2019_I1672860
ALICE_2019_I1723697
ALICE_2020_I1797443
ALICE_2021_I1848990
ALICE_2021_I1862793
ALICE_2021_I1891391
ALICE_2021_I1946131
ALICE_2022_I1868463
ALICE_2022_I2088201
AMY_1990_I283337
AMY_1990_I294525
AMY_1990_I295160
AMY_1990_I298238
AMY_1995_I406129
ARGUS_1986_I227324
ARGUS_1987_I248655
ARGUS_1988_I251097
ARGUS_1988_I261672
ARGUS_1989_I262415
ARGUS_1989_I262551
ARGUS_1989_I268577
ARGUS_1989_I276860
ARGUS_1989_I278932
ARGUS_1989_I280943
ARGUS_1989_I282570
ARGUS_1990_I278933
ARGUS_1990_I283027
ARGUS_1990_I296522
ARGUS_1991_I315059
ARGUS_1992_I319102
ARGUS_1992_I319105
ARGUS_1993_I340894
ARGUS_1993_I342061
ARGUS_1993_I356616
ARGUS_1993_I357132
ARGUS_1994_I354224
ARGUS_1994_I371613
ARGUS_1995_I397794
ARGUS_1997_I440304
ATLAS_2010_CONF_2010_049
ATLAS_2010_I849050
ATLAS_2010_I871366
ATLAS_2010_I879407
ATLAS_2010_I882098
ATLAS_2010_I882463
ATLAS_2010_I882534
ATLAS_2011_CONF_2011_090
ATLAS_2011_CONF_2011_098
ATLAS_2011_I882984
ATLAS_2011_I889546
ATLAS_2011_I890749
ATLAS_2011_I891834
ATLAS_2011_I892704
ATLAS_2011_I894578
ATLAS_2011_I894867
ATLAS_2011_I896268
ATLAS_2011_I897002
ATLAS_2011_I914491
ATLAS_2011_I916832
ATLAS_2011_I917526
ATLAS_2011_I917599
ATLAS_2011_I917931
ATLAS_2011_I919017
ATLAS_2011_I921594
ATLAS_2011_I925932
ATLAS_2011_I926145
ATLAS_2011_I928289
ATLAS_2011_I929691
ATLAS_2011_I930002
ATLAS_2011_I930005
ATLAS_2011_I930220
ATLAS_2011_I939504
ATLAS_2011_I944826
ATLAS_2011_I945498
ATLAS_2011_I954993
ATLAS_2012_CONF_2012_001
ATLAS_2012_CONF_2012_103
ATLAS_2012_CONF_2012_104
ATLAS_2012_CONF_2012_105
ATLAS_2012_CONF_2012_109
ATLAS_2012_CONF_2012_153
ATLAS_2012_I1082009
ATLAS_2012_I1082936
ATLAS_2012_I1083318
ATLAS_2012_I1084540
ATLAS_2012_I1091481
ATLAS_2012_I1093734.cc.broken
ATLAS_2012_I1093738
ATLAS_2012_I1094061.cc.cross-event-correlns
ATLAS_2012_I1094564
ATLAS_2012_I1094568
ATLAS_2012_I1095236
ATLAS_2012_I1112263
ATLAS_2012_I1117704
ATLAS_2012_I1118269
ATLAS_2012_I1119557
ATLAS_2012_I1124167
ATLAS_2012_I1125575
ATLAS_2012_I1125961
ATLAS_2012_I1126136
ATLAS_2012_I1180197
ATLAS_2012_I1183818
ATLAS_2012_I1186556
ATLAS_2012_I1188891
ATLAS_2012_I1190891
ATLAS_2012_I1199269
ATLAS_2012_I1203852
ATLAS_2012_I1204447
ATLAS_2012_I1204784
ATLAS_2012_I943401
ATLAS_2012_I946427
ATLAS_2013_I1190187
ATLAS_2013_I1216670
ATLAS_2013_I1217863
ATLAS_2013_I1217867
ATLAS_2013_I1219109
ATLAS_2013_I1230812
ATLAS_2013_I1234228
ATLAS_2013_I1243871
ATLAS_2013_I1244522
ATLAS_2013_I1263495
ATLAS_2014_I1268975
ATLAS_2014_I1279489
ATLAS_2014_I1282441
ATLAS_2014_I1282447
ATLAS_2014_I1288706
ATLAS_2014_I1298023
ATLAS_2014_I1298811
ATLAS_2014_I1300647
ATLAS_2014_I1304688
ATLAS_2014_I1306294
ATLAS_2014_I1306615
ATLAS_2014_I1307243
ATLAS_2014_I1307756
ATLAS_2014_I1310835
ATLAS_2014_I1312627
ATLAS_2014_I1315949
ATLAS_2014_I1319490
ATLAS_2014_I1325553
ATLAS_2014_I1326641
ATLAS_2014_I1327229
ATLAS_2015_CONF_2015_041
ATLAS_2015_I1345452
ATLAS_2015_I1351916
ATLAS_2015_I1360290
ATLAS_2015_I1364361
ATLAS_2015_I1376945
ATLAS_2015_I1377585
ATLAS_2015_I1386475
ATLAS_2015_I1387176
ATLAS_2015_I1390114
ATLAS_2015_I1393758
ATLAS_2015_I1394679
ATLAS_2015_I1394865
ATLAS_2015_I1397635
ATLAS_2015_I1397637
ATLAS_2015_I1404878
ATLAS_2015_I1408516
ATLAS_2016_CONF_2016_037
ATLAS_2016_CONF_2016_054
ATLAS_2016_CONF_2016_078
ATLAS_2016_CONF_2016_092
ATLAS_2016_CONF_2016_094
ATLAS_2016_I1419070
ATLAS_2016_I1419652
ATLAS_2016_I1424838
ATLAS_2016_I1426515
ATLAS_2016_I1426523
ATLAS_2016_I1426695
ATLAS_2016_I1444991
ATLAS_2016_I1448301
ATLAS_2016_I1449082
ATLAS_2016_I1452559
ATLAS_2016_I1457605
ATLAS_2016_I1458270
ATLAS_2016_I1467230
ATLAS_2016_I1467454
ATLAS_2016_I1468167
ATLAS_2016_I1468168
ATLAS_2016_I1469071
ATLAS_2016_I1478355
ATLAS_2016_I1479760
ATLAS_2016_I1487726
ATLAS_2016_I1492320
ATLAS_2016_I1494075
ATLAS_2016_I1502620
ATLAS_2017_I1495243
ATLAS_2017_I1509919
ATLAS_2017_I1514251
ATLAS_2017_I1517194
ATLAS_2017_I1589844
ATLAS_2017_I1591327
ATLAS_2017_I1598613
ATLAS_2017_I1604029
ATLAS_2017_I1604271
ATLAS_2017_I1609253
ATLAS_2017_I1609448
ATLAS_2017_I1614149
ATLAS_2017_I1624693
ATLAS_2017_I1625109
ATLAS_2017_I1626105
ATLAS_2017_I1627873
ATLAS_2017_I1632756
ATLAS_2017_I1637587
ATLAS_2017_I1644367
ATLAS_2017_I1645627
ATLAS_2018_I1615866
ATLAS_2018_I1634970
ATLAS_2018_I1635273
ATLAS_2018_I1646686
ATLAS_2018_I1656578
ATLAS_2018_I1667046
ATLAS_2018_I1676551
ATLAS_2018_I1677498
ATLAS_2018_I1698006
ATLAS_2018_I1705857
ATLAS_2018_I1707015
ATLAS_2018_I1711114
ATLAS_2018_I1711223
ATLAS_2019_I1718132
ATLAS_2019_I1720438
ATLAS_2019_I1720442
ATLAS_2019_I1724098
ATLAS_2019_I1725190
ATLAS_2019_I1734263
ATLAS_2019_I1736531
ATLAS_2019_I1738841
ATLAS_2019_I1740909
ATLAS_2019_I1744201
ATLAS_2019_I1746286
ATLAS_2019_I1750330
ATLAS_2019_I1759875
ATLAS_2019_I1762584
ATLAS_2019_I1764342
ATLAS_2019_I1768911
ATLAS_2019_I1772062
ATLAS_2019_I1772071
ATLAS_2020_I1788444
ATLAS_2020_I1790256
ATLAS_2020_I1790439
ATLAS_2020_I1801434
ATLAS_2020_I1803608
ATLAS_2020_I1808726
ATLAS_2021_I1849535
ATLAS_2021_I1852328
ATLAS_2021_I1887997
ATLAS_2021_I1913061
ATLAS_2021_I1941095
ATLAS_2022_I2023464
ATLAS_2022_I2037744
ATLAS_2022_I2077570
ATLAS_2022_I2077575
ATLAS_2022_I2103950
ATLAS_2022_I2152933
ATLAS_2022_I2182381
ATLAS_2022_I2593322
ATLAS_2022_I2614196
ATLAS_2023_I2625697
ATLAS_2023_I2628732
ATLAS_2023_I2648096
ATLAS_2023_I2663256
ATLAS_2023_I2663725
ATLAS_CENT_PPB_CALIB
ATLAS_PBPB_CENTRALITY
BABAR_2001_I558091
BABAR_2002_I582184
BABAR_2003_I593379
BABAR_2004_I632399
BABAR_2004_I642355
BABAR_2004_I656680
BABAR_2005_I676691
BABAR_2005_I679961
BABAR_2006_I700020
BABAR_2006_I709730
BABAR_2006_I714447
BABAR_2006_I714448
BABAR_2006_I716277
BABAR_2006_I719111
BABAR_2006_I719581
BABAR_2006_I722213
BABAR_2006_I722905
BABAR_2006_I724557
BABAR_2006_I731865
BABAR_2007_I1091435
BABAR_2007_I722622
BABAR_2007_I725377
BABAR_2007_I729388
BABAR_2007_I746745
BABAR_2007_I747154
BABAR_2007_I747875
BABAR_2007_I749390
BABAR_2007_I756323
BABAR_2007_I758568
BABAR_2007_I760730
BABAR_2008_I765258
BABAR_2008_I769107
BABAR_2008_I776519
BABAR_2008_I781294
BABAR_2008_I790461
BABAR_2008_I792597
BABAR_2009_I797507
BABAR_2009_I810694
BABAR_2009_I813140
BABAR_2009_I815035
BABAR_2009_I819092
BABAR_2009_I821188
BABAR_2009_I821653
BABAR_2009_I825406
BABAR_2009_I827787
BABAR_2009_I827985
BABAR_2009_I829441
BABAR_2009_I836615
BABAR_2010_I845914
BABAR_2010_I850492
BABAR_2010_I853279
BABAR_2010_I864027
BABAR_2010_I867611
BABAR_2010_I878120
BABAR_2010_I879997
BABAR_2011_I855306
BABAR_2011_I883525
BABAR_2011_I892421
BABAR_2011_I897848
BABAR_2011_I901433
BABAR_2011_I920989
BABAR_2011_I924163
BABAR_2012_I1079912
BABAR_2012_I1081760
BABAR_2012_I1086164
BABAR_2012_I1086537
BABAR_2012_I1111233
BABAR_2012_I1122031
BABAR_2012_I1123662
BABAR_2012_I1125567
BABAR_2012_I1125973
BABAR_2012_I1127599
BABAR_2012_I1185407
BABAR_2012_I892684
BABAR_2012_I946659
BABAR_2013_I1116411
BABAR_2013_I1206605
BABAR_2013_I1217421
BABAR_2013_I1217425
BABAR_2013_I1238276
BABAR_2013_I1238807
BABAR_2013_I1247058
BABAR_2013_I1247460
BABAR_2013_I1272843
BABAR_2014_I1286317
BABAR_2014_I1287632
BABAR_2014_I1287920
BABAR_2015_I1308513
BABAR_2015_I1334693
BABAR_2015_I1335269
BABAR_2015_I1337783
BABAR_2015_I1377201
BABAR_2015_I1383130
BABAR_2015_I1403544
BABAR_2016_I1391152
BABAR_2016_I1409292
BABAR_2016_I1441203
BABAR_2016_I1487722
BABAR_2017_I1336340
BABAR_2017_I1498564
BABAR_2017_I1511276
BABAR_2017_I1512302
BABAR_2017_I1591716
BABAR_2017_I1621593
BABAR_2018_I1647139
BABAR_2018_I1667191
BABAR_2018_I1668123
BABAR_2018_I1679886
BABAR_2018_I1691222
BABAR_2018_I1700745
BABAR_2019_I1691954
BABAR_2020_I1769654
BABAR_2021_I1844422
BABAR_2021_I1867843
BABAR_2021_I1937349
BABAR_2021_I1938254
BBAR_1980_I152630
BELLE_2001_I554520
BELLE_2002_I563840
BELLE_2003_I629334
BELLE_2004_I658085
BELLE_2004_I668024
BELLE_2005_I660759
BELLE_2005_I667712
BELLE_2005_I686014
BELLE_2006_I725750
BELLE_2007_I723333
BELLE_2007_I723916
BELLE_2007_I749358
BELLE_2007_I753243
BELLE_2007_I756012
BELLE_2007_I756643
BELLE_2008_I757220
BELLE_2008_I759073
BELLE_2008_I762013
BELLE_2008_I764099
BELLE_2008_I786560
BELLE_2008_I791660
BELLE_2009_I803343
BELLE_2009_I809630
BELLE_2009_I810744
BELLE_2009_I816632
BELLE_2009_I817326
BELLE_2009_I820737
BELLE_2009_I823878
BELLE_2009_I825222
BELLE_2010_I835104
BELLE_2010_I841618
BELLE_2010_I862241
BELLE_2010_I871475
BELLE_2011_I878228
BELLE_2011_I878990
BELLE_2011_I889524
BELLE_2011_I916712
BELLE_2011_I924618
BELLE_2012_I1114749
BELLE_2012_I1123656
BELLE_2013_I1124584
BELLE_2013_I1216515
BELLE_2013_I1225975
BELLE_2013_I1230342
BELLE_2013_I1238273
BELLE_2013_I1239347
BELLE_2013_I1247059
BELLE_2013_I1247463
BELLE_2014_I1282136
BELLE_2014_I1282602
BELLE_2014_I1289224
BELLE_2014_I1312626
BELLE_2015_I1324785
BELLE_2015_I1326905
BELLE_2015_I1330289
BELLE_2015_I1336624
BELLE_2015_I1369998
BELLE_2015_I1392799
BELLE_2015_I1397632
BELLE_2016_I1283183
BELLE_2016_I1389855
BELLE_2016_I1408873
BELLE_2016_I1454405
BELLE_2016_I1487285
BELLE_2016_I1504055
BELLE_2017_I1499706
BELLE_2017_I1512299
BELLE_2017_I1598461
BELLE_2017_I1606201
BELLE_2017_I1607562
BELLE_2017_I1610301
BELLE_2017_I1613517
BELLE_2018_I1621272
BELLE_2018_I1641071
BELLE_2018_I1642436
BELLE_2018_I1663447
BELLE_2018_I1679584
BELLE_2018_I1698390
BELLE_2019_I1687566
BELLE_2019_I1693396
BELLE_2019_I1718551
BELLE_2019_I1724068
BELLE_2019_I1728173
BELLE_2019_I1729311
BELLE_2019_I1729723
BELLE_2019_I1762826
BELLE_2020_I1777678
BELLE_2020_I1785816
BELLE_2020_I1789775
BELLE_2020_I1796822
BELLE_2020_I1813380
BELLE_2021_I1748231
BELLE_2021_I1809180
BELLE_2021_I1835729
BELLE_2021_I1841899
BELLE_2021_I1851126
BELLE_2021_I1859137
BELLE_2021_I1859517
BELLE_2021_I1895149
BELLE_2022_I2138841
BELLE_2022_I2140379
BELLE_2022_I2160445
BELLE_2022_I2163247
BELLE_2022_I2167323
BELLE_2022_I2169621
BELLE_2022_I2512112
BES_1995_I39870
BES_1999_I507637
BES_1999_I508349
BES_2001_I556330
BES_2005_I689969
BESII_2000_I505323
BESII_2002_I552757
BESII_2004_I622224
BESII_2005_I685906
BESII_2005_I690784
BESII_2006_I650381
BESII_2006_I716589
BESII_2006_I717665
BESII_2007_I750713
BESII_2007_I762901
BESII_2007_I763880
BESII_2008_I801208
BESII_2008_I801210
BESII_2009_I814778
BESII_2009_I819937
BESIII_2010_I878544
BESIII_2011_I894356
BESIII_2011_I931195
BESIII_2012_I1079921
BESIII_2012_I1084539
BESIII_2012_I1088606
BESIII_2012_I1097066
BESIII_2012_I1113599
BESIII_2012_I1121378
BESIII_2012_I1127328
BESIII_2012_I1128258
BESIII_2012_I1187787
BESIII_2013_I1120737
BESIII_2013_I1126137
BESIII_2013_I1203840
BESIII_2013_I1203841
BESIII_2013_I1209121
BESIII_2013_I1223625
BESIII_2013_I1227512
BESIII_2013_I1261765
BESIII_2014_I1277070
BESIII_2014_I1280710
BESIII_2014_I1286898
BESIII_2014_I1287631
BESIII_2014_I1323621
BESIII_2015_I1329785
BESIII_2015_I1352828
BESIII_2015_I1355215
BESIII_2015_I1358937
BESIII_2015_I1364494
BESIII_2015_I1373915
BESIII_2015_I1376282
BESIII_2015_I1376484
BESIII_2015_I1377204
BESIII_2015_I1386254
BESIII_2015_I1391138
BESIII_2015_I1406939
BESIII_2016_I1384778
BESIII_2016_I1385603
BESIII_2016_I1411448
BESIII_2016_I1411645
BESIII_2016_I1419650
BESIII_2016_I1422780
BESIII_2016_I1437949
BESIII_2016_I1457597
BESIII_2016_I1484158
BESIII_2016_I1495838
BESIII_2016_I1504943
BESIII_2017_I1469067
BESIII_2017_I1490896
BESIII_2017_I1494065
BESIII_2017_I1506414
BESIII_2017_I1507887
BESIII_2017_I1509241
BESIII_2017_I1509920
BESIII_2017_I1510563
BESIII_2017_I1511280
BESIII_2017_I1519425
BESIII_2017_I1596897
BESIII_2017_I1621266
BESIII_2017_I1624548
BESIII_2017_I1628093
BESIII_2018_I1623555
BESIII_2018_I1627871
BESIII_2018_I1633425
BESIII_2018_I1641075
BESIII_2018_I1646687
BESIII_2018_I1653121
BESIII_2018_I1655158
BESIII_2018_I1658762
BESIII_2018_I1662660
BESIII_2018_I1662665
BESIII_2018_I1664315
BESIII_2018_I1674528
BESIII_2018_I1685535
BESIII_2018_I1689296
BESIII_2018_I1691798
BESIII_2018_I1693610
BESIII_2018_I1697371
BESIII_2018_I1697377
BESIII_2018_I1699641
BESIII_2018_I1703033
BESIII_2018_I1704558
BESIII_2018_I1705754
BESIII_2019_I1691850
BESIII_2019_I1692688
BESIII_2019_I1694530
BESIII_2019_I1702549
BESIII_2019_I1709205
BESIII_2019_I1711896
BESIII_2019_I1712729
BESIII_2019_I1712742
BESIII_2019_I1714778
BESIII_2019_I1716256
BESIII_2019_I1716627
BESIII_2019_I1718337
BESIII_2019_I1722111
BESIII_2019_I1723934
BESIII_2019_I1724547
BESIII_2019_I1724880
BESIII_2019_I1725265
BESIII_2019_I1726357
BESIII_2019_I1731057
BESIII_2019_I1736235
BESIII_2019_I1743841
BESIII_2019_I1747092
BESIII_2019_I1756876
BESIII_2019_I1758883
BESIII_2019_I1765606
BESIII_2019_I1773081
BESIII_2020_I1762922
BESIII_2020_I1763897
BESIII_2020_I1771616
BESIII_2020_I1775344
BESIII_2020_I1788734
BESIII_2020_I1791570
BESIII_2020_I1795949
BESIII_2020_I1799437
BESIII_2020_I1800404
BESIII_2020_I1814783
BESIII_2020_I1817739
BESIII_2020_I1818254
BESIII_2020_I1823448
BESIII_2020_I1830421
BESIII_2020_I1836509
BESIII_2020_I1837725
BESIII_2021_I1830524
BESIII_2021_I1837968
BESIII_2021_I1845443
BESIII_2021_I1845444
BESIII_2021_I1847766
BESIII_2021_I1849747
BESIII_2021_I1854317
BESIII_2021_I1857930
BESIII_2021_I1859124
BESIII_2021_I1859248
BESIII_2021_I1866051
BESIII_2021_I1866233
BESIII_2021_I1867196
BESIII_2021_I1868813
BESIII_2021_I1870322
BESIII_2021_I1870388
BESIII_2021_I1900124
BESIII_2021_I1908066
BESIII_2021_I1909391
BESIII_2021_I1921775
BESIII_2021_I1921801
BESIII_2021_I1929314
BESIII_2021_I1929365
BESIII_2021_I1933191
BESIII_2021_I1940222
BESIII_2021_I1940960
BESIII_2021_I1966612
BESIII_2021_I1974025
BESIII_2021_I1996394
BESIII_2021_I1997451
BESIII_2021_I1999208
BESIII_2022_I1864775
BESIII_2022_I1900094
BESIII_2022_I1945692
BESIII_2022_I1997940
BESIII_2022_I2016785
BESIII_2022_I2018236
BESIII_2022_I2030993
BESIII_2022_I2033007
BESIII_2022_I2033855
BESIII_2022_I2038523
BESIII_2022_I2039027
BESIII_2022_I2047667
BESIII_2022_I2051683
BESIII_2022_I2070086
BESIII_2022_I2071715
BESIII_2022_I2084294
BESIII_2022_I2088218
BESIII_2022_I2088337
BESIII_2022_I2099126
BESIII_2022_I2099144
BESIII_2022_I2102455
BESIII_2022_I2105430
BESIII_2022_I2122392
BESIII_2022_I2122399
BESIII_2022_I2127373
BESIII_2022_I2135117
BESIII_2022_I2141748
BESIII_2022_I2153556
BESIII_2022_I2158325
BESIII_2022_I2166668
BESIII_2022_I2166759
BESIII_2022_I2167804
BESIII_2022_I2611489
BESIII_2022_I2615968
BESIII_2022_I2618227
BESIII_2023_I2621481
BRAHMS_2004_CENT_AUAU
BRAHMS_2004_I647076
CDF_1988_I263320
CDF_1990_I283352
CDF_1993_I354237
CDF_1994_I374155
CDF_1996_I393345
CDF_1996_I418504
CDF_1996_I423414
CDF_1997_I442265
CDF_1998_I448075
CDF_2000_I505738
CDF_2000_I511377
CDF_2001_I538041
CDF_2001_I552797
CDF_2001_I564673
CDF_2002_I567774
CDF_2004_I647490
CDF_2005_I667384
CDF_2005_I682179
CDF_2006_I699933
CDF_2006_I717572
CDF_2007_I743342
CDF_2008_I768451
CDF_2008_I768579
CDF_2008_I787780
CDF_2008_I790693
CDF_2008_I805902
CDF_2008_I806082
CDF_2009_I817466
CDF_2009_I834437
CDF_2009_I856131
CDF_2009_NOTE_9936
CDF_2010_I849042
CDF_2012_I1124333
CDF_2012_NOTE10874
CDF_2015_I1388868
CELLO_1981_I166365
CELLO_1982_I12010
CELLO_1983_I191415
CELLO_1984_I202783
CELLO_1987_I236981
CELLO_1989_I276764
CELLO_1990_I283026
CELLO_1992_I345437
CLEO_1983_I188803
CLEO_1983_I188805
CLEO_1984_I193577
CLEO_1985_I205668
CLEO_1986_I220652
CLEO_1990_I281039
CLEO_1990_I298611
CLEO_1991_I29927
CLEO_1991_I314060
CLEO_1992_I315181
CLEO_1994_I372230
CLEO_1995_I392704
CLEO_1998_I445351
CLEO_1998_I467595
CLEO_1999_I474676
CLEO_1999_I508944
CLEO_2000_I526554
CLEO_2000_I537236
CLEO_2001_I552541
CLEO_2003_I633196
CLEO_2004_I645209
CLEO_2004_I649917
CLEO_2004_I654843
CLEO_2005_I1649168
CLEO_2005_I679349
CLEO_2006_I691720
CLEO_2006_I700665
CLEO_2007_I728872
CLEO_2007_I732065
CLEO_2007_I753556
CLEO_2008_I787608
CLEO_2008_I791716
CLEO_2009_I822856
CLEO_2009_I832707
CLEO_2012_I1086166
CLEO_2012_I1094160
CLEO_2013_I1081165
CLEO_2017_I1519168
CLEOC_2005_I693873
CLEOC_2006_I715096
CLEOC_2006_I728043
CLEOC_2007_I749602
CLEOC_2008_I769777
CLEOC_2008_I777917
CLEOC_2008_I779705
CLEOC_2008_I780363
CLEOC_2008_I784516
CLEOC_2009_I823313
CLEOC_2011_I875526
CLEOC_2011_I913909
CLEOC_2011_I929693
CLEOII_1992_I32611
CLEOII_1993_I352823
CLEOII_1994_I356001
CLEOII_1994_I361356
CLEOII_1994_I371611
CLEOII_1994_I372349
CLEOII_1994_I373188
CLEOII_1994_I378319
CLEOII_1994_I381696
CLEOII_1995_I397770
CLEOII_1995_I404590
CLEOII_1996_I397787
CLEOII_1996_I415409
CLEOII_1996_I416471
CLEOII_1997_I424575
CLEOII_1997_I442910
CLEOII_1997_I446031
CLEOII_1998_I467642
CLEOII_1999_I478217
CLEOII_1999_I501417
CLEOII_1999_I504672
CLEOII_2000_I533575
CLEOII_2001_I537154
CLEOII_2002_I601701
CLEOII_2002_I606309
CLEOII_2005_I668268
CLEOIII_2004_I627327
CLEOIII_2006_I728679
CMD_1985_I221309
CMD2_1995_I406880
CMD2_1998_I480170
CMD2_1999_I483994
CMD2_1999_I498859
CMD2_1999_I502164
CMD2_1999_I503154
CMD2_2000_I511375
CMD2_2000_I523691
CMD2_2000_I531667
CMD2_2000_I532970
CMD2_2001_I554522
CMD2_2002_I568807
CMD2_2003_I601222
CMD2_2003_I616446
CMD2_2004_I630009
CMD2_2004_I648023
CMD2_2005_I658856
CMD2_2006_I728191
CMD2_2007_I728302
CMD2_2008_I782516
CMD3_2013_I1217420
CMD3_2016_I1385598
CMD3_2016_I1395968
CMD3_2016_I1444990
CMD3_2017_I1606078
CMD3_2019_I1720610
CMD3_2019_I1740541
CMD3_2019_I1744510
CMD3_2019_I1770428
CMS_2010_I845323
CMS_2010_I855299
CMS_2010_PAS_QCD_10_024
CMS_2011_I879315
CMS_2011_I884811
CMS_2011_I885663
CMS_2011_I886332
CMS_2011_I889175
CMS_2011_I889807
CMS_2011_I890166
CMS_2011_I902309
CMS_2011_I912560
CMS_2011_I916908
CMS_2011_I930319
CMS_2011_I954992
CMS_2012_I1087342
CMS_2012_I1089835
CMS_2012_I1090423
CMS_2012_I1102908
CMS_2012_I1107658
CMS_2012_I1111014
CMS_2012_I1184941
CMS_2012_I1193338
CMS_2012_I1298807
CMS_2012_I941555
CMS_2012_PAS_FSQ_12_020
CMS_2012_PAS_QCD_11_010
CMS_2013_I1122847
CMS_2013_I1208923
CMS_2013_I1209721
CMS_2013_I1218372
CMS_2013_I1223519
CMS_2013_I1224539
CMS_2013_I1256943
CMS_2013_I1258128
CMS_2013_I1261026
CMS_2013_I1265659
CMS_2013_I1272853
CMS_2013_I1273574
CMS_2014_I1266056
CMS_2014_I1298810
CMS_2014_I1303894
CMS_2014_I1305624
CMS_2014_I1322726
CMS_2015_I1310737
CMS_2015_I1327224
CMS_2015_I1346843
CMS_2015_I1356998
CMS_2015_I1370682
CMS_2015_I1370682_PARTON
CMS_2015_I1380605
CMS_2015_I1384119
CMS_2015_I1385107
CMS_2015_I1397174
CMS_2015_PAS_FSQ_15_007
CMS_2016_I1413748
CMS_2016_I1421646
CMS_2016_I1430892
CMS_2016_I1454211
CMS_2016_I1459051
CMS_2016_I1471281
CMS_2016_I1473674
CMS_2016_I1486238
CMS_2016_I1487277
CMS_2016_I1487288
CMS_2016_I1491950
CMS_2016_I1491953
CMS_2016_PAS_SUS_16_14
CMS_2016_PAS_TOP_15_006
CMS_2017_I1467451
CMS_2017_I1471287
CMS_2017_I1497519
CMS_2017_I1499471
CMS_2017_I1511284
CMS_2017_I1518399
CMS_2017_I1519995
CMS_2017_I1594909
CMS_2017_I1598460
CMS_2017_I1605749
CMS_2017_I1608166
CMS_2017_I1610623
CMS_2017_I1631985
CMS_2017_I1634835
CMS_2017_I1635889
CMS_2018_I1620050
CMS_2018_I1643640
CMS_2018_I1646260
CMS_2018_I1653948
CMS_2018_I1662081
CMS_2018_I1663452
CMS_2018_I1663958
CMS_2018_I1667854
CMS_2018_I1680318
CMS_2018_I1682495
CMS_2018_I1686000
CMS_2018_I1690148
CMS_2018_I1703993
CMS_2018_I1708620
CMS_2018_I1711625
CMS_2019_I1705068
CMS_2019_I1719955
CMS_2019_I1744604
CMS_2019_I1753680
CMS_2019_I1753720
CMS_2019_I1764472
CMS_2020_I1776758
CMS_2020_I1794169
CMS_2020_I1814328
CMS_2020_I1837084
CMS_2021_I1847230
CMS_2021_I1849180
CMS_2021_I1866118
CMS_2021_I1901295
CMS_2021_I1920187
CMS_2021_I1932460
CMS_2021_I1963239
CMS_2021_I1972986
CMS_2021_I1978840
CMS_2022_I2079374
CMS_2022_I2129461
CMS_2022_I2170533
CMS_2023_I2703254
CMSTOTEM_2014_I1294140
CRYSTAL_BALL_1986_I238081
CRYSTAL_BALL_1988_I261078
CRYSTAL_BALL_1989_I263581
CRYSTAL_BALL_1990_I294419
CRYSTAL_BALL_1991_I297905
CRYSTAL_BALL_1991_I315873
CRYSTAL_BARREL_1997_I456942
CUSB_1982_I180613
CUSB_1984_I199809
CUSB_1991_I325661
D0_1995_I398175
D0_1996_I399364
D0_1996_I416886
D0_2000_I499943
D0_2000_I503361
D0_2000_I535017
D0_2001_I559624
D0_2004_I659398
D0_2006_I698784
D0_2007_I744624
D0_2008_I724239
D0_2008_I769689
D0_2008_I779574
D0_2008_I782968
D0_2008_I791230
D0_2008_I792812
D0_2009_I815094
D0_2009_I824127
D0_2009_I826756
D0_2010_I846483
D0_2010_I846997
D0_2010_I856972
D0_2010_I871787
D0_2011_I895662
D0_2015_I1324946
DASP_1978_I129715
DASP_1979_I132045
DASP_1979_I132410
DASP_1982_I178613
DELPHI_1990_I297698
DELPHI_1991_I301657
DELPHI_1991_I324035
DELPHI_1992_I334948
DELPHI_1993_I356732
DELPHI_1993_I360638
DELPHI_1994_I375963
DELPHI_1995_I377487
DELPHI_1995_I382285
DELPHI_1995_I394052
DELPHI_1995_I394716
DELPHI_1995_I395026
DELPHI_1995_I399737
DELPHI_1996_I401100
DELPHI_1996_I416741
DELPHI_1996_I420528
DELPHI_1996_I424112
DELPHI_1997_I428178
DELPHI_1998_I473409
DELPHI_1999_I448370
DELPHI_1999_I482816
DELPHI_1999_I499183
DELPHI_2000_I511443
DELPHI_2000_I513614
DELPHI_2000_I522656
DELPHI_2000_I524693
DELPHI_2000_I524694
DELPHI_2000_I531568
DELPHI_2001_I526164
DELPHI_2002_069_CONF_603
DELPHI_2003_I620250
DELPHI_2006_I719387
DELPHI_2008_I763352
DELPHI_2011_I890503
DESY147_1978_I131524
DESY147_1980_I153896
DM1_1978_I134061
DM1_1979_I132828
DM1_1979_I141565
DM1_1980_I140174
DM1_1981_I156053
DM1_1981_I156054
DM1_1981_I166353
DM1_1981_I166964
DM1_1982_I168552
DM1_1982_I169382
DM1_1982_I176801
DM2_1983_I190558
DM2_1988_I262690
DM2_1988_I264144
DM2_1989_I267118
DM2_1990_I297706
DM2_1991_I318558
DM2_1992_I339265
E288_1981_I153009
E605_1991_I302822
E691_1992_I342947
E735_1998_I480349
E756_2000_I530367
E791_2001_I530319
E791_2001_I530320
E791_2002_I585322
EHS_1988_I265504
EXAMPLE
EXAMPLE_AUXDATA
EXAMPLE_CUTFLOW
EXAMPLE_CUTS
EXAMPLE_HEPMC_FILTER
EXAMPLE_HTT
EXAMPLE_LWTNN
EXAMPLE_MINIMIZE
EXAMPLE_NTUPLE_CSV
EXAMPLE_NTUPLE_ROOT
EXAMPLE_ONNX
EXAMPLE_SMEAR
FENICE_1994_I377833
FENICE_1996_I426675
FENICE_1998_I471263
FOCUS_2003_I618864
FOCUS_2003_I626320
FOCUS_2003_I635446
FOCUS_2004_I654030
FOCUS_2004_I663820
FOCUS_2006_I693639
FOCUS_2007_I741543
FOCUS_2007_I750701
GAMMAGAMMA_1973_I84794
GAMMAGAMMA_1975_I100016
GAMMAGAMMA_1979_I133588
GAMMAGAMMA_1979_I141722
GAMMAGAMMA_1980_I153382
GAMMAGAMMA_1981_I158474
H1_1994_I372350
H1_1995_I394793
H1_1995_I396365
H1_1996_I421105
H1_1996_I422230
H1_1996_I424463
H1_1997_I445116
H1_1998_I477556
H1_1999_I481112
H1_1999_I504022
H1_2000_I503947
H1_2002_I561885
H1_2005_I676166
H1_2006_I699835
H1_2006_I711847
H1_2007_I736052
H1_2007_I746380
H1_2009_I810046
H1_2013_I1217865
H1_2015_I1343110
HERA_2015_I1353667
HERA_2015_I1377206
HRS_1985_I201482
HRS_1985_I213242
HRS_1986_I17781
HRS_1986_I18502
HRS_1986_I18688
HRS_1987_I215848
HRS_1987_I250823
HRS_1988_I23360
HRS_1988_I250824
HRS_1989_I276948
HRS_1990_I280958
HRS_1992_I339573
HYPERCP_2005_I677384
JADE_1979_I142874
JADE_1981_I166363
JADE_1983_I190818
JADE_1984_I202784
JADE_1984_I202785
JADE_1984_I203145
JADE_1984_I221004
JADE_1985_I213948
JADE_1987_I234905
JADE_1990_I282847
JADE_1998_I447560
JADE_OPAL_2000_I513337
KEDR_2019_I1673357
KEDR_2022_I2593308
KLOE_2002_I585183
KLOE_2005_I655225
KLOE_2008_I791841
KLOE_2009_I797438
KLOE_2009_I818106
KLOE_2013_I1186739
KLOE2_2014_I1317236
KLOE2_2016_I1416825
KLOE2_2016_I1416990
KLOE2_2017_I1634981
L3_1990_I298078
L3_1991_I314407
L3_1992_I334954
L3_1992_I336180
L3_1994_I374698
L3_1995_I381046
L3_1997_I427107
L3_1998_I467929
L3_2004_I645127
L3_2004_I652683
L3_2004_I661114
L3_2008_I825820
LENA_1981_I164397
LENA_1982_I179431
LHCB_2010_I865584
LHCB_2010_I867355
LHCB_2011_I917009
LHCB_2011_I919315
LHCB_2012_I1097092
LHCB_2012_I1114753
LHCB_2012_I1119400
LHCB_2012_I1208102
LHCB_2013_I1208105
LHCB_2013_I1218996
LHCB_2013_I1243156
LHCB_2014_I1262703
LHCB_2014_I1281685
LHCB_2014_I1309880
LHCB_2015_I1333223
LHCB_2015_I1396331
LHCB_2015_I1401225
LHCB_2016_I1394391
LHCB_2016_I1414195
LHCB_2016_I1454404
LHCB_2016_I1490663
LHCB_2017_I1596893
LHCB_2017_I1621811
LHCB_2018_I1662483
LHCB_2018_I1665223
LHCB_2018_I1704426
LHCB_2019_I1720423
LHCB_2019_I1720859
LHCB_2020_I1787090
LHCB_2021_I1889335
LHCB_2021_I1990313
LHCB_2022_I1960979
LHCB_2022_I2138845
LHCF_2012_I1115479
LHCF_2015_I1351909
LHCF_2016_I1385877
LHCF_2018_I1518782
LHCF_2018_I1692008
LHCF_2020_I1783943
LHCF_2023_I2658888
MAC_1985_I202924
MAC_1985_I206052
MAC_1987_I245571
MARKI_1975_I100592
MARKI_1975_I100733
MARKI_1976_I108144
MARKI_1976_I109792
MARKI_1977_I119979
MARKI_1982_I169326
MARKII_1979_I143939
MARKII_1979_I144382
MARKII_1982_I177606
MARKII_1982_I178416
MARKII_1984_I195739
MARKII_1985_I207785
MARKII_1985_I209198
MARKII_1986_I220003
MARKII_1987_I234976
MARKII_1987_I247900
MARKII_1988_I246184
MARKII_1988_I250899
MARKII_1988_I261194
MARKII_1990_I304882
MARKII_1991_I295286
MARKIII_1987_I247266
MARKJ_1979_I141976
MARKJ_1980_I158857
MARKJ_1982_I166369
MARKJ_1983_I182337
MARKJ_1984_I196567
MARKJ_1986_I230297
MC_CENT_PPB_CALIB
MC_CENT_PPB_ETA
MC_Centrality.cc.todo
MC_CORRELATORS_EXAMPLE
MC_DALITZ_D
MC_DALITZ_ETAC
MC_DECAY_ETA
MC_DECAY_F1
MC_DECAY_MESON_MESON_LEPTONS
MC_DECAY_OMEGAPHIA1_3PION
MC_DECAY_ONIUM_PIPI
MC_DECAY_SEMILEPTONIC
MC_DECAY_TAU
MC_DILEPTON
MC_DIPHOTON
MC_DIS
MC_ELECTRONS
MC_FSPARTICLES
MC_HFBRANCHING
MC_HFDECAYS
MC_HFJETS
MC_HHJETS
MC_HINC
MC_HJETS
MC_HKTSPLITTINGS
MC_IDENTIFIED
MC_JET_IN_HI
MC_JETS
MC_JETTAGS
MC_KTSPLITTINGS
MC_LEADJETUE
MC_MET
MC_MUONS
MC_OPTIONS
MC_PARTONICTOPS
MC_PDFS
MC_PHOTONINC
MC_PHOTONJETS
MC_PHOTONKTSPLITTINGS
MC_PHOTONS
MC_PRINTEVENT
MC_QCD_PARTONS
MC_REENTRANT
MC_SUSY
MC_TAUS
MC_TAUS_PHOTONS
MC_TTBAR
MC_VH2BB
MC_WEIGHTS
MC_WINC
MC_WJETS
MC_WKTSPLITTINGS
MC_WPOL
MC_WVBF
MC_WWINC
MC_WWJETS
MC_WWKTSPLITTINGS
MC_XS
MC_ZINC
MC_ZJETS
MC_ZKTSPLITTINGS
MC_ZVBF
MC_ZZINC
MC_ZZJETS
MC_ZZKTSPLITTINGS
MD1_1986_I364141
MD1_1994_I362599
MUPI_1972_I84978
MUPI_1973_I95215
NA22_1986_I18431
NA48_2010_I868871
NA49_2006_I694016
NA49_2009_I818217
NA60_2016_I1452485
ND_1991_I321108
NMD_1974_I745
NUSEA_2003_I613362
OLYA_1981_I173076
OLYA_1984_I208231
OPAL_1992_I321190
OPAL_1993_I342766
OPAL_1993_I343181
OPAL_1994_I372772
OPAL_1995_I382219
OPAL_1995_I393503
OPAL_1995_I398320
OPAL_1996_I402487
OPAL_1996_I428493
OPAL_1997_I421977
OPAL_1997_I421978
OPAL_1997_I440103
OPAL_1997_I440721
OPAL_1997_I447146
OPAL_1997_I447188
OPAL_1998_I467092
OPAL_1998_I470419
OPAL_1998_I472637
OPAL_1998_I474012
OPAL_2000_I474010
OPAL_2000_I502750
OPAL_2000_I513476
OPAL_2000_I529898
OPAL_2001_I536266
OPAL_2001_I552446
OPAL_2001_I554583
OPAL_2002_I601225
OPAL_2003_I595335
OPAL_2003_I599181
OPAL_2003_I611415
OPAL_2004_I631361
OPAL_2004_I648738
OPAL_2004_I669402
OPAL_2007_I734955
OPAL_2008_I754316
PDG_HADRON_MULTIPLICITIES
PDG_HADRON_MULTIPLICITIES_RATIOS
PDG_R
PDG_TAUS
PDG_UPSILON4S_HADRON_MULTIPLICITIES
PHENIX_2019_I1672015
PLUTO_1977_I110272
PLUTO_1977_I118873
PLUTO_1979_I140294
PLUTO_1979_I140818
PLUTO_1979_I142517
PLUTO_1980_I152291
PLUTO_1980_I154270
PLUTO_1981_I156315
PLUTO_1981_I165122
PLUTO_1982_I166799
PLUTO_1983_I191161
PLUTO_1984_I204487
PLUTO_1985_I215869
R209_1982_I168182
SFM_1984_I196601
SLD_1995_I378545
SLD_1996_I422172
SLD_1999_I469925
SLD_2002_I582951
SLD_2004_I630327
SND_1999_I508003
SND_2000_I503946
SND_2000_I524221
SND_2000_I525398
SND_2000_I527094
SND_2000_I527752
SND_2001_I533574
SND_2001_I558279
SND_2001_I579319
SND_2002_I582183
SND_2002_I587084
SND_2003_I612867
SND_2003_I619011
SND_2005_I686349
SND_2006_I717778
SND_2006_I720035
SND_2007_I755881
SND_2014_I1275333
SND_2014_I1321689
SND_2015_I1332929
SND_2015_I1389908
SND_2016_I1418483
SND_2016_I1471515
SND_2016_I1473343
SND_2016_I1484677
SND_2016_I1489182
SND_2018_I1637194
SND_2018_I1638368
SND_2018_I1693737
SND_2018_I1694988
SND_2019_I1726419
SND_2020_I1789269
SND_2020_I1800477
SND_2020_I1806118
SND_2020_I1809286
SND_2021_I1942539
STAR_2006_I709170
STAR_2006_I722757
STAR_2006_I723509
STAR_2008_I793126
STAR_2008_I810030
STAR_2009_UE_HELEN
STAR_2014_I1253360
STAR_2016_I1414638
STAR_2017_I1510593
STAR_2020_I1792394
STAR_BES_CALIB
TASSO_1979_I140303
TASSO_1980_I143690
TASSO_1980_I143691
TASSO_1980_I153341
TASSO_1980_I153511
TASSO_1980_I153656
TASSO_1982_I168232
TASSO_1982_I176887
TASSO_1982_I177174
TASSO_1982_I179022
TASSO_1983_I181470
TASSO_1983_I192072
TASSO_1984_I194774
TASSO_1984_I195333
TASSO_1984_I199468
TASSO_1985_I205119
TASSO_1986_I230950
TASSO_1987_I248660
TASSO_1988_I263859
TASSO_1989_I266893
TASSO_1989_I267755
TASSO_1989_I277658
TASSO_1989_I278856
TASSO_1989_I279165
TASSO_1990_I284251
TASSO_1990_I294755
TOPAZ_1989_I279575
TOPAZ_1990_I283003
TOPAZ_1993_I353845
TOPAZ_1993_I361661
TOPAZ_1995_I381777
TOPAZ_1995_I381900
TOPAZ_1997_I454183
TOTEM_2012_I1115294
TOTEM_2012_I1220862
TOTEM_2014_I1328627
TPC_1984_I200105
TPC_1984_I205869
TPC_1985_I205868
TPC_1986_I217416
TPC_1986_I228072
TPC_1987_I235694
TPC_1988_I262143
TPC_1991_I316132
UA1_1990_I280412
UA5_1982_I176647
UA5_1986_I233599
UA5_1987_I244829
UA5_1988_I263399
UA5_1989_I267179
VENUS_1987_I251274
VENUS_1990_I283774
VENUS_1990_I296392
VENUS_1995_I392360
VENUS_1997_I440852
VENUS_1998_I453613
VENUS_1999_I500179
WA46_1984_I206647
ZEUS_1995_I392386
ZEUS_1995_I395196
ZEUS_1996_I420332
ZEUS_1997_I450085
ZEUS_1999_I470499
ZEUS_1999_I500267
ZEUS_1999_I508906
ZEUS_2000_I524911
ZEUS_2001_I568665
ZEUS_2008_I763404
ZEUS_2008_I780108
ZEUS_2008_I810112
ZEUS_2010_I875006
ZEUS_2011_I945935
ZEUS_2012_I1116258
